D:\Desktop\IP_Calc\src\main\java\su\sviridoff\net\TelegramBot.java
D:\Desktop\IP_Calc\src\main\java\su\sviridoff\net\telebot\IPCalcBot.java
D:\Desktop\IP_Calc\src\main\java\su\sviridoff\net\IPCalc.java
D:\Desktop\IP_Calc\src\main\java\su\sviridoff\net\enums\NetworkClass.java
D:\Desktop\IP_Calc\src\main\java\su\sviridoff\net\enums\NetworkType.java
